1. rbvpadap_dr2.f

err2_abs =

   5.6443e-10


uexact_norm2 =

  340.1344


err2_rel =

   1.6594e-12


2. rsysadap_dr2.f
err2_abs =

   3.5475e-05


uexact_norm2 =

  340.1189


err2_rel =

   1.0430e-07

3. rsysnoadap_dr2.f

err2_abs =

   8.8722e-05


uexact_norm2 =

  340.1344


err2_rel =

   2.6084e-07
